%YAML 1.1
%TAG !u! tag:unity3d.com,2011:
--- !u!114 &11400000
MonoBehaviour:
  m_ObjectHideFlags: 0
  m_PrefabParentObject: {fileID: 0}
  m_PrefabInternal: {fileID: 0}
  m_GameObject: {fileID: 0}
  m_Enabled: 1
  m_EditorHideFlags: 0
  m_Script: {fileID: 11500000, guid: f2ca5c514c0221c47bb84f58341fd515, type: 3}
  m_Name: GameManager
  m_EditorClassIdentifier: 
  Colors: []
  TutorialLevels:
  - name: First Level
    gridSize: {x: 2, y: 2}
    actions:
    - startTile: {x: 0, y: 1}
      landTile: {x: 1, y: 1}
  - name: Second Level
    gridSize: {x: 2, y: 2}
    actions:
    - startTile: {x: 0, y: 0}
      landTile: {x: 0, y: 1}
    - startTile: {x: 1, y: 1}
      landTile: {x: 1, y: 0}
  - name: Third Level
    gridSize: {x: 2, y: 2}
    actions:
    - startTile: {x: 1, y: 1}
      landTile: {x: 0, y: 1}
    - startTile: {x: 0, y: 1}
      landTile: {x: 0, y: 0}
  - name: Fourth Level
    gridSize: {x: 3, y: 3}
    actions:
    - startTile: {x: 1, y: 1}
      landTile: {x: 1, y: 2}
    - startTile: {x: 1, y: 2}
      landTile: {x: 2, y: 2}
    - startTile: {x: 1, y: 2}
      landTile: {x: 0, y: 2}
  - name: Fifth Level
    gridSize: {x: 3, y: 3}
    actions:
    - startTile: {x: 2, y: 2}
      landTile: {x: 1, y: 2}
    - startTile: {x: 1, y: 2}
      landTile: {x: 1, y: 1}
    - startTile: {x: 1, y: 1}
      landTile: {x: 0, y: 1}
    - startTile: {x: 0, y: 1}
      landTile: {x: 0, y: 0}
  - name: Sixth Level
    gridSize: {x: 3, y: 3}
    actions:
    - startTile: {x: 0, y: 1}
      landTile: {x: 1, y: 1}
    - startTile: {x: 1, y: 1}
      landTile: {x: 1, y: 0}
    - startTile: {x: 1, y: 1}
      landTile: {x: 2, y: 1}
    - startTile: {x: 1, y: 1}
      landTile: {x: 1, y: 2}
  - name: Seventh Level
    gridSize: {x: 3, y: 3}
    actions:
    - startTile: {x: 0, y: 0}
      landTile: {x: 1, y: 0}
    - startTile: {x: 2, y: 0}
      landTile: {x: 1, y: 0}
    - startTile: {x: 0, y: 2}
      landTile: {x: 1, y: 2}
    - startTile: {x: 2, y: 2}
      landTile: {x: 1, y: 2}
    - startTile: {x: 0, y: 0}
      landTile: {x: 0, y: 1}
    - startTile: {x: 2, y: 2}
      landTile: {x: 2, y: 1}
